Utility Functions To Deal Day To Day Bioinformatics Tasks. • parcutils
…
res is an object of improved dataframe - tibble. Each row in the res is a differential comparison which can be identified by the value from the column comp.

print(res$comp)
#> [1] "treatment1_VS_control" "treatment2_VS_control"

Data related to each differential comparison can be found from other columns of res.

For example, summary of differently expressed genes can be find from the column deg_summmary

print(res$dsr_tibble_deg)
#> $treatment1_VS_control
#> # A tibble: 4,034 × 9
#>    gene_id  baseMean log2FoldChange  lfcSE   stat   pvalue     padj signif regul
#>    <chr>       <dbl>          <dbl>  <dbl>  <dbl>    <dbl>    <dbl> <chr>  <chr>
#>  1 ENSG000…   716.          -0.601  0.0932 -6.45  1.09e-10  6.58e-9 p-val… other
#>  2 ENSG000…  4243.          -0.0714 0.0748 -0.954 3.40e- 1  5.52e-1 NS     other
#>  3 ENSG000…   672.          -0.256  0.114  -2.25  2.47e- 2  9.02e-2 p-val… other
#>  4 ENSG000…    80.7         -0.176  0.204  -0.865 3.87e- 1  5.93e-1 NS     other
#>  5 ENSG000…  1279.          -0.138  0.179  -0.771 4.41e- 1  6.38e-1 NS     other
#>  6 ENSG000…  4072.          -0.359  0.181  -1.99  4.69e- 2  1.44e-1 p-val… other
#>  7 ENSG000… 13435.          -0.0627 0.0989 -0.634 5.26e- 1  7.11e-1 NS     other
#>  8 ENSG000…   529.          -0.326  0.111  -2.93  3.36e- 3  2.01e-2 p-val… other
#>  9 ENSG000…     2.38        -2.21   1.40   -1.58  1.14e- 1 NA       log2FC other
#> 10 ENSG000…     7.51        -0.698  0.672  -1.04  2.99e- 1 NA       NS     other
#> # … with 4,024 more rows
#> 
#> $treatment2_VS_control
#> # A tibble: 4,034 × 9
#>    gene_id baseMean log2FoldChange  lfcSE    stat   pvalue     padj signif regul
#>    <chr>      <dbl>          <dbl>  <dbl>   <dbl>    <dbl>    <dbl> <chr>  <chr>
#>  1 ENSG00…   716.          0.557   0.0896  6.22   4.98e-10 1.56e- 9 p-val… other
#>  2 ENSG00…  4243.          0.729   0.0744  9.79   1.22e-22 8.13e-22 p-val… other
#>  3 ENSG00…   672.         -0.542   0.116  -4.69   2.77e- 6 6.30e- 6 p-val… other
#>  4 ENSG00…    80.7         0.0145  0.205   0.0710 9.43e- 1 9.52e- 1 NS     other
#>  5 ENSG00…  1279.         -1.18    0.180  -6.56   5.47e-11 1.84e-10 p-val… Down 
#>  6 ENSG00…  4072.          0.193   0.181   1.07   2.86e- 1 3.32e- 1 NS     other
#>  7 ENSG00… 13435.          0.0257  0.0990  0.260  7.95e- 1 8.21e- 1 NS     other
#>  8 ENSG00…   529.          0.00983 0.111   0.0890 9.29e- 1 9.40e- 1 NS     other
#>  9 ENSG00…     2.38       -1.31    1.31   -1.00   3.17e- 1 3.65e- 1 log2FC other
#> 10 ENSG00…     7.51       -1.39    0.731  -1.90   5.69e- 2 7.65e- 2 log2FC other
#> # … with 4,024 more rows

As described below, there are several helper functions to get data from the res .

Get data from res using helper functions

# get normalised gene expression value for all genes across all samples. 
parcutils::get_normalised_expression_matrix(x = res, 
                                            samples = NULL,
                                            genes = NULL,
                                            summarise_replicates = FALSE)
#> # A tibble: 4,034 × 10
#>    gene_id         treat1_rep1 treat1_rep2 treat1_rep3 control_rep1 control_rep2
#>    <chr>                 <dbl>       <dbl>       <dbl>        <dbl>        <dbl>
#>  1 ENSG0000015434…      440.        461.       456.           694.        687.  
#>  2 ENSG0000019641…     3370.       3222.      3478.          3591.       3616.  
#>  3 ENSG0000017302…      707.        590.       709.           739.        781.  
#>  4 ENSG0000014059…       72.6        78.3       71.3           92.7        72.7 
#>  5 ENSG0000013926…     1403.       1484.      1568.          1463.       1781.  
#>  6 ENSG0000016589…     2815.       3559.      3404.          3875.       4514.  
#>  7 ENSG0000017945…    12679.      12542.     13690.         13257.      13358.  
#>  8 ENSG0000018886…      461.        434.       459.           540.        592.  
#>  9 ENSG0000024915…        0           2.03       0.990          0          11.0 
#> 10 ENSG0000011085…        2.18        9.15       9.90          11.7         5.97
#> # … with 4,024 more rows, and 4 more variables: control_rep3 <dbl>,
#> #   treat2_rep1 <dbl>, treat2_rep2 <dbl>, treat2_rep3 <dbl>

# average gene expression values across relicates  
parcutils::get_normalised_expression_matrix(x = res, 
                                            samples = NULL,
                                            genes = NULL,
                                            summarise_replicates = T, 
                                            summarise_method = "median")
#> # A tibble: 4,034 × 4
#>    gene_id                  control treatment1 treatment2
#>    <chr>                      <dbl>      <dbl>      <dbl>
#>  1 ENSG00000000971:CFH       7349.      5727.      9849. 
#>  2 ENSG00000001461:NIPAL3     134.       126.        68.2
#>  3 ENSG00000001497:LAS1L     9282.      8228.      7678. 
#>  4 ENSG00000001631:KRIT1    23294.     29183.     20375. 
#>  5 ENSG00000002746:HECW1       66.0       31.9       24.9
#>  6 ENSG00000003056:M6PR      6538.      7394.      6694. 
#>  7 ENSG00000003436:TFPI       248.       225.       200. 
#>  8 ENSG00000003509:NDUFAF7    462.       495.       384. 
#>  9 ENSG00000004766:VPS50       40.2       38.6      121. 
#> 10 ENSG00000004864:SLC25A13   370.       396.       844. 
#> # … with 4,024 more rows
…
