Get Alternate Splice Events based on their differential regulation. — get_ASE_by_regulation • parcutils
…
# Simplify output for multiple sample comparisons
get_ASE_by_regulation(x = res, sample_comparisons = res$de_comparisons, simplify = TRUE, regul= "up")
#> # A tibble: 27 × 3
#>    sample_comparisons ase                                               regul
#>    <chr>              <chr>                                             <fct>
#>  1 A_VS_B             A3SS:TP53-201-exon2;TP53-205-exon2                up   
#>  2 A_VS_B             NSUN5/ENST00000252594_Intron2/clean               up   
#>  3 A_VS_B             MXE:TRA2B-novelTr015-exon2;TRA2B-novelTr014-exon2 up   
#>  4 A_VS_B             A3SS:TRA2B-208-exon3;TRA2B-205-exon4              up   
#>  5 A_VS_B             A5SS:TRA2B-214-exon2;TRA2B-novelTr008-exon1       up   
#>  6 A_VS_B             A3SS:SRSF2-205-exon2;SRSF2-207-exon2              up   
#>  7 A_VS_B             A3SS:NSUN5-201-exon3;NSUN5-203-exon3              up   
#>  8 A_VS_B             A5SS:SRSF3-202-exon5;SRSF3-novelTr007-exon1       up   
#>  9 A_VS_B             A3SS:SRSF2-206-exon2;SRSF2-novelTr003-exon2       up   
#> 10 A_VS_B             SE:TP53-206-exon10;TP53-201-int9                  up   
#> # … with 17 more rows
…
