Get genes based on their differential regulation — get_genes_by_regulation • parcutils
…
# get genes other than up and down
get_genes_by_regulation(x = res, sample_comparisons = c("treatment1_VS_control") , regul = "other") %>% head()
#>                   other                   other                   other 
#> "ENSG00000154342:WNT3A" "ENSG00000196415:PRTN3"  "ENSG00000173020:GRK2" 
#>                   other                   other                   other 
#>  "ENSG00000140598:EFL1" "ENSG00000139263:LRIG3" "ENSG00000165898:ISCA2" 

# Simplify output for multiple sample comparisons
get_genes_by_regulation(x = res, sample_comparisons = res$comp, simplify = T)
#> $treatment1_VS_control
#> # A tibble: 41 × 3
#>    sample_comparisons    genes                      regul
#>    <chr>                 <chr>                      <chr>
#>  1 treatment1_VS_control ENSG00000187193:MT1X       up   
#>  2 treatment1_VS_control ENSG00000269533:AC003002.3 up   
#>  3 treatment1_VS_control ENSG00000065427:KARS1      up   
#>  4 treatment1_VS_control ENSG00000007171:NOS2       up   
#>  5 treatment1_VS_control ENSG00000285447:ZNF883     up   
#>  6 treatment1_VS_control ENSG00000111275:ALDH2      up   
#>  7 treatment1_VS_control ENSG00000279111:OR10X1     up   
#>  8 treatment1_VS_control ENSG00000167617:CDC42EP5   up   
#>  9 treatment1_VS_control ENSG00000186566:GPATCH8    up   
#> 10 treatment1_VS_control ENSG00000232423:PRAMEF6    up   
#> # … with 31 more rows
#> 
#> $treatment2_VS_control
#> # A tibble: 835 × 3
#>    sample_comparisons    genes                   regul
#>    <chr>                 <chr>                   <chr>
#>  1 treatment2_VS_control ENSG00000155918:RAET1L  up   
#>  2 treatment2_VS_control ENSG00000151458:ANKRD50 up   
#>  3 treatment2_VS_control ENSG00000110876:SELPLG  up   
#>  4 treatment2_VS_control ENSG00000128510:CPA4    up   
#>  5 treatment2_VS_control ENSG00000153815:CMIP    up   
#>  6 treatment2_VS_control ENSG00000130005:GAMT    up   
#>  7 treatment2_VS_control ENSG00000091542:ALKBH5  up   
#>  8 treatment2_VS_control ENSG00000157240:FZD1    up   
#>  9 treatment2_VS_control ENSG00000103154:NECAB2  up   
#> 10 treatment2_VS_control ENSG00000112379:ARFGEF3 up   
#> # … with 825 more rows
…
