Map metadata to irfinder-s output — map_intron_meta_data • parcutils
…
    Value

    a dataframe

    Examples

example_dir <- system.file("extdata" ,"ir_data" , package="parcutils")
example_files <- fs::dir_ls(example_dir, glob = "*-IR-nondir*.txt")
names(example_files) <- stringr::str_replace(example_files , pattern = ".*/", replacement = "") %>%
stringr::str_replace(pattern = "-IR-nondir.txt", replacement = "")
x <- read_irfinderS_output(files = example_files[1],  add_prefix_chr = TRUE)
map_intron_meta_data(x = x,  bs_genome_object = BSgenome.Hsapiens.UCSC.hg38::BSgenome.Hsapiens.UCSC.hg38)
#> $ctrl_rep1
#> # A tibble: 236,540 × 26
#>    chr    start    end width strand name             null excludedbases coverage
#>    <fct>  <int>  <int> <int> <fct>  <chr>           <dbl>         <dbl>    <dbl>
#>  1 chr1  924948 925921   974 +      SAMD11/ENSG000…     0           140    0.836
#>  2 chr1  925189 925921   733 +      SAMD11/ENSG000…     0            90    0.787
#>  3 chr1  925800 925921   122 +      SAMD11/ENSG000…     0            10    0.441
#>  4 chr1  926013 930154  4142 +      SAMD11/ENSG000…     0           200    0.936
#>  5 chr1  930336 931038   703 +      SAMD11/ENSG000…     0            10    0.961
#>  6 chr1  930336 935771  5436 +      SAMD11/ENSG000…     0           871    0.800
#>  7 chr1  931089 935771  4683 +      SAMD11/ENSG000…     0           810    0.771
#>  8 chr1  931089 942409 11321 +      SAMD11/ENSG000…     0          1690    0.616
#>  9 chr1  935896 939039  3144 +      SAMD11/ENSG000…     0            30    0.257
#> 10 chr1  935805 941171  5367 +      SAMD11/ENSG000…     0           575    0.413
#> # … with 236,530 more rows, and 17 more variables: introndepth <dbl>,
#> #   introndepth25percentile <dbl>, introndepth50percentile <dbl>,
#> #   introndepth75percentile <dbl>, exontointronreadsleft <dbl>,
#> #   exontointronreadsright <dbl>, introndepthfirst50bp <dbl>,
#> #   introndepthlast50bp <dbl>, spliceleft <dbl>, spliceright <dbl>,
#> #   spliceexact <dbl>, irratio <dbl>, warnings <chr>, intron_id <chr>,
#> #   seq <chr>, GC <dbl>, length <int>
…
