Read IR-finderS output — read_irfinderS_output • parcutils
…
irratio

warnings

    Value

    Examples

example_dir <- system.file("extdata" ,"ir_data" , package="parcutils")
example_files <- fs::dir_ls(example_dir, glob = "*-IR-nondir*.txt")
names(example_files) <- stringr::str_replace(example_files , pattern = ".*/", replacement = "") %>%
stringr::str_replace(pattern = "-IR-nondir.txt", replacement = "")
read_irfinderS_output(files = example_files,  add_prefix_chr = F)
#> $ctrl_rep1
#> # A tibble: 236,540 × 22
#>    chr    start    end name       null strand excludedbases coverage introndepth
#>    <chr>  <dbl>  <dbl> <chr>     <dbl> <chr>          <dbl>    <dbl>       <dbl>
#>  1 1     924948 925921 SAMD11/E…     0 +                140    0.836       2.05 
#>  2 1     925189 925921 SAMD11/E…     0 +                 90    0.787       1.35 
#>  3 1     925800 925921 SAMD11/E…     0 +                 10    0.441       0.8  
#>  4 1     926013 930154 SAMD11/E…     0 +                200    0.936       3.23 
#>  5 1     930336 931038 SAMD11/E…     0 +                 10    0.961       2.51 
#>  6 1     930336 935771 SAMD11/E…     0 +                871    0.800       2.05 
#>  7 1     931089 935771 SAMD11/E…     0 +                810    0.771       1.97 
#>  8 1     931089 942409 SAMD11/E…     0 +               1690    0.616       1.28 
#>  9 1     935896 939039 SAMD11/E…     0 +                 30    0.257       0    
#> 10 1     935805 941171 SAMD11/E…     0 +                575    0.413       0.298
#> # … with 236,530 more rows, and 13 more variables:
#> #   introndepth25percentile <dbl>, introndepth50percentile <dbl>,
#> #   introndepth75percentile <dbl>, exontointronreadsleft <dbl>,
#> #   exontointronreadsright <dbl>, introndepthfirst50bp <dbl>,
#> #   introndepthlast50bp <dbl>, spliceleft <dbl>, spliceright <dbl>,
#> #   spliceexact <dbl>, irratio <dbl>, warnings <chr>, intron_id <chr>
#> 
#> $ctrl_rep2
#> # A tibble: 236,540 × 22
#>    chr    start    end name       null strand excludedbases coverage introndepth
#>    <chr>  <dbl>  <dbl> <chr>     <dbl> <chr>          <dbl>    <dbl>       <dbl>
#>  1 1     924948 925921 SAMD11/E…     0 +                140    0.792       2.43 
#>  2 1     925189 925921 SAMD11/E…     0 +                 90    0.731       2.44 
#>  3 1     925800 925921 SAMD11/E…     0 +                 10    0           0    
#>  4 1     926013 930154 SAMD11/E…     0 +                200    0.983       4.26 
#>  5 1     930336 931038 SAMD11/E…     0 +                 10    0.939       5.08 
#>  6 1     930336 935771 SAMD11/E…     0 +                871    0.700       1.91 
#>  7 1     931089 935771 SAMD11/E…     0 +                810    0.658       1.45 
#>  8 1     931089 942409 SAMD11/E…     0 +               1690    0.639       1.34 
#>  9 1     935896 939039 SAMD11/E…     0 +                 30    0.454       0.386
#> 10 1     935805 941171 SAMD11/E…     0 +                575    0.564       0.861
#> # … with 236,530 more rows, and 13 more variables:
#> #   introndepth25percentile <dbl>, introndepth50percentile <dbl>,
#> #   introndepth75percentile <dbl>, exontointronreadsleft <dbl>,
#> #   exontointronreadsright <dbl>, introndepthfirst50bp <dbl>,
#> #   introndepthlast50bp <dbl>, spliceleft <dbl>, spliceright <dbl>,
#> #   spliceexact <dbl>, irratio <dbl>, warnings <chr>, intron_id <chr>
#> 
#> $treat_rep1
#> # A tibble: 236,540 × 22
#>    chr    start    end name       null strand excludedbases coverage introndepth
#>    <chr>  <dbl>  <dbl> <chr>     <dbl> <chr>          <dbl>    <dbl>       <dbl>
#>  1 1     924948 925921 SAMD11/E…     0 +                140    0.505       0.513
#>  2 1     925189 925921 SAMD11/E…     0 +                 90    0.358       0.147
#>  3 1     925800 925921 SAMD11/E…     0 +                 10    1           1    
#>  4 1     926013 930154 SAMD11/E…     0 +                200    0.959       3.31 
#>  5 1     930336 931038 SAMD11/E…     0 +                 10    0.445       0.367
#>  6 1     930336 935771 SAMD11/E…     0 +                871    0.516       0.539
#>  7 1     931089 935771 SAMD11/E…     0 +                810    0.528       0.570
#>  8 1     931089 942409 SAMD11/E…     0 +               1690    0.503       0.508
#>  9 1     935896 939039 SAMD11/E…     0 +                 30    0.227       0    
#> 10 1     935805 941171 SAMD11/E…     0 +                575    0.402       0.255
#> # … with 236,530 more rows, and 13 more variables:
#> #   introndepth25percentile <dbl>, introndepth50percentile <dbl>,
#> #   introndepth75percentile <dbl>, exontointronreadsleft <dbl>,
#> #   exontointronreadsright <dbl>, introndepthfirst50bp <dbl>,
#> #   introndepthlast50bp <dbl>, spliceleft <dbl>, spliceright <dbl>,
#> #   spliceexact <dbl>, irratio <dbl>, warnings <chr>, intron_id <chr>
#> 
#> $treat_rep2
#> # A tibble: 236,540 × 22
#>    chr    start    end name       null strand excludedbases coverage introndepth
#>    <chr>  <dbl>  <dbl> <chr>     <dbl> <chr>          <dbl>    <dbl>       <dbl>
#>  1 1     924948 925921 SAMD11/E…     0 +                140    0.983       3.90 
#>  2 1     925189 925921 SAMD11/E…     0 +                 90    0.978       3.46 
#>  3 1     925800 925921 SAMD11/E…     0 +                 10    0.874       2    
#>  4 1     926013 930154 SAMD11/E…     0 +                200    0.974       3.82 
#>  5 1     930336 931038 SAMD11/E…     0 +                 10    0.799       1.14 
#>  6 1     930336 935771 SAMD11/E…     0 +                871    0.608       0.949
#>  7 1     931089 935771 SAMD11/E…     0 +                810    0.574       0.872
#>  8 1     931089 942409 SAMD11/E…     0 +               1690    0.658       1.41 
#>  9 1     935896 939039 SAMD11/E…     0 +                 30    0.555       0.920
#> 10 1     935805 941171 SAMD11/E…     0 +                575    0.675       1.58 
#> # … with 236,530 more rows, and 13 more variables:
#> #   introndepth25percentile <dbl>, introndepth50percentile <dbl>,
#> #   introndepth75percentile <dbl>, exontointronreadsleft <dbl>,
#> #   exontointronreadsright <dbl>, introndepthfirst50bp <dbl>,
#> #   introndepthlast50bp <dbl>, spliceleft <dbl>, spliceright <dbl>,
#> #   spliceexact <dbl>, irratio <dbl>, warnings <chr>, intron_id <chr>
…
