Run differential expression (DE) analysis for several comparisosns at a time. Internally it uses DESeq2::DESeq() to perform DE analysis. — run_deseq_analysis • parcutils
…
## DESEq result data frame

print(res$dsr_tibble)
#> $treatment1_VS_control
#> # A tibble: 4,034 × 7
#>    gene_id               baseMean log2FoldChange  lfcSE   stat   pvalue     padj
#>    <chr>                    <dbl>          <dbl>  <dbl>  <dbl>    <dbl>    <dbl>
#>  1 ENSG00000154342:WNT3A   716.          -0.601  0.0932 -6.45  1.09e-10  6.58e-9
#>  2 ENSG00000196415:PRTN3  4243.          -0.0714 0.0748 -0.954 3.40e- 1  5.52e-1
#>  3 ENSG00000173020:GRK2    672.          -0.256  0.114  -2.25  2.47e- 2  9.02e-2
#>  4 ENSG00000140598:EFL1     80.7         -0.176  0.204  -0.865 3.87e- 1  5.93e-1
#>  5 ENSG00000139263:LRIG3  1279.          -0.138  0.179  -0.771 4.41e- 1  6.38e-1
#>  6 ENSG00000165898:ISCA2  4072.          -0.359  0.181  -1.99  4.69e- 2  1.44e-1
#>  7 ENSG00000179454:KLHL… 13435.          -0.0627 0.0989 -0.634 5.26e- 1  7.11e-1
#>  8 ENSG00000188868:ZNF5…   529.          -0.326  0.111  -2.93  3.36e- 3  2.01e-2
#>  9 ENSG00000249158:PCDH…     2.38        -2.21   1.40   -1.58  1.14e- 1 NA      
#> 10 ENSG00000110852:CLEC…     7.51        -0.698  0.672  -1.04  2.99e- 1 NA      
#> # … with 4,024 more rows
#> 
#> $treatment2_VS_control
#> # A tibble: 4,034 × 7
#>    gene_id              baseMean log2FoldChange  lfcSE    stat   pvalue     padj
#>    <chr>                   <dbl>          <dbl>  <dbl>   <dbl>    <dbl>    <dbl>
#>  1 ENSG00000154342:WNT…   716.          0.557   0.0896  6.22   4.98e-10 1.56e- 9
#>  2 ENSG00000196415:PRT…  4243.          0.729   0.0744  9.79   1.22e-22 8.13e-22
#>  3 ENSG00000173020:GRK2   672.         -0.542   0.116  -4.69   2.77e- 6 6.30e- 6
#>  4 ENSG00000140598:EFL1    80.7         0.0145  0.205   0.0710 9.43e- 1 9.52e- 1
#>  5 ENSG00000139263:LRI…  1279.         -1.18    0.180  -6.56   5.47e-11 1.84e-10
#>  6 ENSG00000165898:ISC…  4072.          0.193   0.181   1.07   2.86e- 1 3.32e- 1
#>  7 ENSG00000179454:KLH… 13435.          0.0257  0.0990  0.260  7.95e- 1 8.21e- 1
#>  8 ENSG00000188868:ZNF…   529.          0.00983 0.111   0.0890 9.29e- 1 9.40e- 1
#>  9 ENSG00000249158:PCD…     2.38       -1.31    1.31   -1.00   3.17e- 1 3.65e- 1
#> 10 ENSG00000110852:CLE…     7.51       -1.39    0.731  -1.90   5.69e- 2 7.65e- 2
#> # … with 4,024 more rows
#> 

## DESEq result data frame  DEG assigned, look at the columns 'signif' and 'regul'

print(res$dsr_tibble_deg)
#> $treatment1_VS_control
#> # A tibble: 4,034 × 9
#>    gene_id  baseMean log2FoldChange  lfcSE   stat   pvalue     padj signif regul
#>    <chr>       <dbl>          <dbl>  <dbl>  <dbl>    <dbl>    <dbl> <chr>  <chr>
#>  1 ENSG000…   716.          -0.601  0.0932 -6.45  1.09e-10  6.58e-9 p-val… other
#>  2 ENSG000…  4243.          -0.0714 0.0748 -0.954 3.40e- 1  5.52e-1 NS     other
#>  3 ENSG000…   672.          -0.256  0.114  -2.25  2.47e- 2  9.02e-2 p-val… other
#>  4 ENSG000…    80.7         -0.176  0.204  -0.865 3.87e- 1  5.93e-1 NS     other
#>  5 ENSG000…  1279.          -0.138  0.179  -0.771 4.41e- 1  6.38e-1 NS     other
#>  6 ENSG000…  4072.          -0.359  0.181  -1.99  4.69e- 2  1.44e-1 p-val… other
#>  7 ENSG000… 13435.          -0.0627 0.0989 -0.634 5.26e- 1  7.11e-1 NS     other
#>  8 ENSG000…   529.          -0.326  0.111  -2.93  3.36e- 3  2.01e-2 p-val… other
#>  9 ENSG000…     2.38        -2.21   1.40   -1.58  1.14e- 1 NA       log2FC other
#> 10 ENSG000…     7.51        -0.698  0.672  -1.04  2.99e- 1 NA       NS     other
#> # … with 4,024 more rows
#> 
#> $treatment2_VS_control
#> # A tibble: 4,034 × 9
#>    gene_id baseMean log2FoldChange  lfcSE    stat   pvalue     padj signif regul
#>    <chr>      <dbl>          <dbl>  <dbl>   <dbl>    <dbl>    <dbl> <chr>  <chr>
#>  1 ENSG00…   716.          0.557   0.0896  6.22   4.98e-10 1.56e- 9 p-val… other
#>  2 ENSG00…  4243.          0.729   0.0744  9.79   1.22e-22 8.13e-22 p-val… other
#>  3 ENSG00…   672.         -0.542   0.116  -4.69   2.77e- 6 6.30e- 6 p-val… other
#>  4 ENSG00…    80.7         0.0145  0.205   0.0710 9.43e- 1 9.52e- 1 NS     other
#>  5 ENSG00…  1279.         -1.18    0.180  -6.56   5.47e-11 1.84e-10 p-val… Down 
#>  6 ENSG00…  4072.          0.193   0.181   1.07   2.86e- 1 3.32e- 1 NS     other
#>  7 ENSG00… 13435.          0.0257  0.0990  0.260  7.95e- 1 8.21e- 1 NS     other
#>  8 ENSG00…   529.          0.00983 0.111   0.0890 9.29e- 1 9.40e- 1 NS     other
#>  9 ENSG00…     2.38       -1.31    1.31   -1.00   3.17e- 1 3.65e- 1 log2FC other
#> 10 ENSG00…     7.51       -1.39    0.731  -1.90   5.69e- 2 7.65e- 2 log2FC other
#> # … with 4,024 more rows
…
